{{- $.Scratch.Add "index" slice -}}
{{- range where (where .Site.Pages "Section" "post") "Kind" "page" -}}
{{- $.Scratch.Add "index" (dict "ref" .Permalink "title" .Title "date" .Date "number" .Params.number "tags" .Params.tags "content" (.Content | plainify) ) -}}
{{- end -}}
{{- $.Scratch.Get "index" | jsonify -}}
